Division,WeightClassKg,Place,Name,Team,BodyweightKg,Best3SquatKg,Best3BenchKg,Best3DeadliftKg,TotalKg,Equipment,Event,Sex
Boys,51.71,1,Corden Moore,Ponder,43.18,63.5,31.75,29.48,124.74,Single-ply,SBD,M
Boys,55.79,1,Juan Mares,Bowie,55.79,154.22,90.72,142.88,387.82,Single-ply,SBD,M
Boys,55.79,2,Rylee Miller,Paradise,55.79,154.22,74.84,151.95,381.02,Single-ply,SBD,M
Boys,55.79,3,Justin Christensen,Alvord,54.88,113.4,68.04,124.74,306.17,Single-ply,SBD,M
Boys,55.79,4,Daniel Perez,Olney,54.25,102.06,63.5,99.79,265.35,Single-ply,SBD,M
Boys,55.79,DQ,Jake Morris,Bowie,53.07,104.33,,,,Single-ply,SBD,M
Boys,59.87,1,Caleb McWhorter,Wichita Falls City View,59.6,154.22,77.11,185.97,417.3,Single-ply,SBD,M
Boys,59.87,2,Kyle Reed,Wichita Falls City View,58.79,142.88,70.31,156.49,369.68,Single-ply,SBD,M
Boys,59.87,3,Justin Wilson #3,Bowie,57.33,136.08,77.11,147.42,360.61,Single-ply,SBD,M
Boys,59.87,4,Ricardo Pacheco,Olney,58.79,102.06,52.16,99.79,254.01,Single-ply,SBD,M
Boys,59.87,DQ,Dylan Shawver,Little Elm,58.79,,,,,Single-ply,SBD,M
Boys,67.13,1,Luis Gonzales,Wichita Falls City View,64.14,192.78,102.06,195.04,489.88,Single-ply,SBD,M
Boys,67.13,2,Zach Downing,Wichita Falls Hirschi,66.68,154.22,108.86,195.04,458.13,Single-ply,SBD,M
Boys,67.13,3,Tuan Hoang,Wichita Falls City View,66.95,174.63,102.06,181.44,458.13,Single-ply,SBD,M
Boys,67.13,4,Billy Brown,Bowie,66.68,158.76,102.06,167.83,428.64,Single-ply,SBD,M
Boys,67.13,5,Jay Rogers,Bowie,63.41,163.29,92.99,158.76,415.04,Single-ply,SBD,M
Boys,67.13,6,Timo Dominguez,Wichita Falls City View,64.41,142.88,97.52,158.76,399.16,Single-ply,SBD,M
Boys,67.13,7,Daelon Warren-Fruge,Little Elm,66.32,147.42,92.99,158.76,399.16,Single-ply,SBD,M
Boys,67.13,8,Joey Crawford,Bowie,65.32,129.27,61.23,165.56,356.07,Single-ply,SBD,M
Boys,67.13,9,Jaron Humphrey,Wichita Falls Hirschi,61.96,129.27,74.84,124.74,328.85,Single-ply,SBD,M
Boys,67.13,10,Isaiah Rodriguez,Bridgeport,64.23,117.93,72.57,136.08,326.59,Single-ply,SBD,M
Boys,67.13,11,Charles Martinez,Bridgeport,63.87,74.84,49.9,95.25,219.99,Single-ply,SBD,M
Boys,74.84,1,Danny Ho,Wichita Falls City View,74.84,233.6,136.08,229.06,598.74,Single-ply,SBD,M
Boys,74.84,2,Chance Tomlinson,Bowie,72.03,204.12,120.2,215.46,539.77,Single-ply,SBD,M
Boys,74.84,3,Wyat Burrows,Olney,68.31,183.7,95.25,208.65,487.61,Single-ply,SBD,M
Boys,74.84,4,Joseph Murrell,Little Elm,74.39,174.63,108.86,188.24,471.74,Single-ply,SBD,M
Boys,74.84,5,Nate Downing,Wichita Falls Hirschi,68.49,170.1,92.99,199.58,462.66,Single-ply,SBD,M
Boys,74.84,6,Tony Tijerina,Bridgeport,73.57,163.29,83.91,145.15,392.36,Single-ply,SBD,M
Boys,74.84,7,Garrett Fontenot,Paradise,69.13,138.35,77.11,140.61,356.07,Single-ply,SBD,M
Boys,74.84,8,Brodie Fitzgerald,Chico,74.03,124.74,68.04,147.42,340.19,Single-ply,SBD,M
Boys,74.84,9,Cody Putnam,Alvord,67.4,120.2,68.04,136.08,324.32,Single-ply,SBD,M
Boys,74.84,10,Justin Jackson,Bowie,69.04,124.74,61.23,131.54,317.51,Single-ply,SBD,M
Boys,74.84,11,Nate Antczak,Ponder,68.58,86.18,49.9,86.18,222.26,Single-ply,SBD,M
Boys,74.84,DQ,Albert Navarette,Ponder,71.67,174.63,,,,Single-ply,SBD,M
Boys,74.84,DQ,Jacob Robinson,Paradise,73.94,,,,,Single-ply,SBD,M
Boys,74.84,DQ,Grant Caddell,Paradise,68.86,,,,,Single-ply,SBD,M
Boys,74.84,DQ,Devon Dotson,Little Elm,67.31,161.03,,,,Single-ply,SBD,M
Boys,74.84,DQ,Anthony Perez,Bridgeport,67.22,,,,,Single-ply,SBD,M
Boys,82.1,1,Michael Walker #4,Little Elm,78.2,204.12,136.08,238.14,578.33,Single-ply,SBD,M
Boys,82.1,2,Isaiah White,Wichita Falls Hirschi,82.1,219.99,127.01,165.56,512.56,Single-ply,SBD,M
Boys,82.1,3,Zackary Otto,Bowie,82.1,201.85,108.86,181.44,492.15,Single-ply,SBD,M
Boys,82.1,4,Christian Hand,Bridgeport,76.29,154.22,113.4,181.44,449.06,Single-ply,SBD,M
Boys,82.1,5,Cole Thompson,Little Elm,80.56,172.37,102.06,158.76,433.18,Single-ply,SBD,M
Boys,82.1,6,Colby Cox,Paradise,79.2,138.35,79.38,149.69,367.41,Single-ply,SBD,M
Boys,82.1,7,Colby White,Bridgeport,78.83,131.54,52.16,172.37,356.07,Single-ply,SBD,M
Boys,89.81,1,Roy Goins,Little Elm,84.19,199.58,124.74,204.12,528.44,Single-ply,SBD,M
Boys,89.81,2,Bridger Skogberg,Paradise,86.64,195.04,113.4,181.44,489.88,Single-ply,SBD,M
Boys,89.81,3,Brian Hernandez,Olney,84.01,192.78,108.86,183.7,485.34,Single-ply,SBD,M
Boys,89.81,4,Kaleb Evans,Paradise,85.82,183.7,97.52,190.51,471.74,Single-ply,SBD,M
Boys,89.81,5,Matthew Rankin,Bridgeport,89.36,167.83,92.99,183.7,444.52,Single-ply,SBD,M
Boys,89.81,6,Nick Rhodes,Paradise,85.28,142.88,83.91,151.95,378.75,Single-ply,SBD,M
Boys,89.81,7,Romeo Vargas,Bridgeport,89.36,108.86,104.33,163.29,376.48,Single-ply,SBD,M
Boys,89.81,8,Noah Rogers,Paradise,85.82,117.93,74.84,108.86,301.64,Single-ply,SBD,M
Boys,89.81,9,Gage Barclay,Alvord,86.09,117.93,58.97,111.13,288.03,Single-ply,SBD,M
Boys,89.81,10,Cody Snead,Alvord,85.09,102.06,61.23,113.4,276.69,Single-ply,SBD,M
Boys,99.79,1,Tristan Dennison,Bowie,97.61,260.82,147.42,240.4,648.64,Single-ply,SBD,M
Boys,99.79,2,Adrian Arthur,Wichita Falls Hirschi,96.07,204.12,136.08,238.14,578.33,Single-ply,SBD,M
Boys,99.79,3,Jacob Slimp,Bridgeport,95.07,181.44,113.4,185.97,480.81,Single-ply,SBD,M
Boys,99.79,4,Junior Tekodo,Little Elm,97.25,163.29,113.4,181.44,458.13,Single-ply,SBD,M
Boys,99.79,5,Demetri Hendrick,Bridgeport,97.34,158.76,99.79,188.24,446.79,Single-ply,SBD,M
Boys,99.79,6,Caelan Green,Paradise,99.43,142.88,86.18,181.44,410.5,Single-ply,SBD,M
Boys,99.79,7,Dartanyian Hernandez,Wichita Falls Hirschi,92.08,95.25,74.84,127.01,297.1,Single-ply,SBD,M
Boys,109.77,1,Gonsalo Ibarra,Bridgeport,109.5,204.12,142.88,213.19,560.19,Single-ply,SBD,M
Boys,109.77,2,Tim Sombathy,Alvord,109.13,142.88,74.84,133.81,351.53,Single-ply,SBD,M
Boys,109.77,3,Ethan Boren,Wichita Falls Hirschi,101.97,79.38,56.7,124.74,260.82,Single-ply,SBD,M
Boys,109.77,DQ,Kenan Harris,Wichita Falls Hirschi,105.78,,,,,Single-ply,SBD,M
Boys,109.77,DQ,Dalton Wilcox,Little Elm,102.15,,,,,Single-ply,SBD,M
Boys,124.74,1,Blake Martin,Alvord,118.93,294.84,154.22,206.38,655.44,Single-ply,SBD,M
Boys,124.74,2,Edgar Ramirez,Wichita Falls Hirschi,114.03,249.48,142.88,215.46,607.81,Single-ply,SBD,M
Boys,124.74,3,Hunter Coleman,Bridgeport,110.04,188.24,108.86,181.44,478.54,Single-ply,SBD,M
Boys,124.74,4,Jayden Workman,Electra,119.2,172.37,113.4,142.88,428.64,Single-ply,SBD,M
Boys,124.74+,1,Caleb Jennings,Bridgeport,138.98,235.87,149.69,244.94,630.49,Single-ply,SBD,M
Boys,124.74+,2,Eric Stonechek,Bridgeport,126.46,217.72,149.69,215.46,582.87,Single-ply,SBD,M
Boys,124.74+,3,Tyler Wagner,Ponder,145.06,229.06,111.13,197.31,537.51,Single-ply,SBD,M
Boys,124.74+,4,Tyler Yeck,Ponder,155.4,197.31,104.33,197.31,498.95,Single-ply,SBD,M
Boys,124.74+,5,Tyler Yzaguirre,Bridgeport,131.45,142.88,120.2,174.63,437.72,Single-ply,SBD,M
Boys,124.74+,6,Ernest Ferguson,Wichita Falls City View,138.16,136.08,70.31,124.74,331.12,Single-ply,SBD,M
Boys,124.74+,DQ,Jacob Kimball,Little Elm,126.64,,,,,Single-ply,SBD,M
