Place,Name,Division,BodyweightKg,Best3SquatKg,Best3BenchKg,Best3DeadliftKg,TotalKg,WeightClassKg,Sex,CyrillicName,BirthYear,Event,Equipment
1,Sergey Fedosienko,Open,58.92,280,187.5,255,722.5,59,M,Сергей Федосиенко,1982,SBD,Single-ply
2,Kirill Krut,Open,58.42,250,172.5,245,667.5,59,M,Кирилл Круть,1991,SBD,Single-ply
3,Ilya Marichev,Open,58.68,235,165,255,655,59,M,Илья Маричев,2001,SBD,Single-ply
4,Vladimir Talankin,Open,58.64,215,145,232.5,592.5,59,M,Владимир Таланкин,1985,SBD,Single-ply
5,Gennadiy Sokolov,Open,58.3,220,145,225,590,59,M,Геннадий Соколов,1994,SBD,Single-ply
6,Dmitriy Gonchar,Open,58.3,195,150,182.5,527.5,59,M,Дмитрий Гончар,1994,SBD,Single-ply
1,Sergey Gladkikh,Open,66,310,213,292.5,815.5,66,M,Сергей Гладких,1989,SBD,Single-ply
2,Konstantin Danilov,Open,66,315,202.5,280,797.5,66,M,Константин Данилов,1986,SBD,Single-ply
3,Anatoliy Leonov,Open,65.95,292.5,177.5,250,720,66,M,Анатолий Леонов,1986,SBD,Single-ply
4,Aleksey Alekseev,Open,64.65,207.5,170,215,592.5,66,M,Алексей Алексеев,1989,SBD,Single-ply
1,Sergei Gaishinetc,Open,73.15,305,210,315,830,74,M,Сергей Гайшинец,1986,SBD,Single-ply
2,Anatoliy Goryachok,Open,73.55,310,190,320,820,74,M,Анатолий Горячок,1979,SBD,Single-ply
3,Konstantin Dunin,Open,73.95,312.5,200,307.5,820,74,M,Константин Дунин,1996,SBD,Single-ply
4,Vladislav Leontyev,Open,73.15,302.5,192.5,262.5,757.5,74,M,Владислав Леонтьев,1994,SBD,Single-ply
5,Pavel Belevantsev,Open,73.45,290,227.5,240,757.5,74,M,Павел Белеванцев,1983,SBD,Single-ply
6,Ilya Mishin,Open,73.9,275,195,275,745,74,M,Илья Мишин,1995,SBD,Single-ply
7,Sergey Tarasov,Open,70.2,260,165,250,675,74,M,Сергей Тарасов,1994,SBD,Single-ply
8,Maksim Kutovoy,Open,73.6,242.5,172.5,207.5,622.5,74,M,Максим Кутовой,1989,SBD,Single-ply
DQ,Nikolay Sokolov,Open,73.75,,,,,74,M,Николай Соколов,1979,SBD,Single-ply
1,Evgeniy Vasyukov,Open,83,330,288,282.5,900.5,83,M,Евгений Васюков,1985,SBD,Single-ply
2,Vladislav Shaybekov,Open,82.95,335,260,295,890,83,M,Владислав Шайбеков,1995,SBD,Single-ply
3,Georgiy Bunkov,Open,83,335,242.5,297.5,875,83,M,Георгий Буньков,1989,SBD,Single-ply
4,Iosif Konogray,Open,82.6,315,207.5,305,827.5,83,M,Иосиф Конограй,1991,SBD,Single-ply
5,Nikolay Tsveloy,Open,82.95,310,215,285,810,83,M,Николай Цвелой,1991,SBD,Single-ply
6,Boris Khovrakh,Open,82.05,310,215,260,785,83,M,Борис Ховрах,1986,SBD,Single-ply
7,Dmitriy Topol,Open,81.85,275,175,295,745,83,M,Дмитрий Тополь,1981,SBD,Single-ply
8,Yaroslav Tereshkin,Open,79.45,275,172.5,250,697.5,83,M,Ярослав Терешкин,1995,SBD,Single-ply
1,Dmitry Inzarkin,Open,92.07,360,293,345,998,93,M,Дмитрий Инзаркин,1987,SBD,Single-ply
2,Aleksandr Rodionov,Open,92.95,330,265,310,905,93,M,Александр Родионов,1988,SBD,Single-ply
3,Roman Drochnev,Open,92.7,320,257.5,305,882.5,93,M,Роман Дрочнев,1987,SBD,Single-ply
4,Vladimir Agafonov,Open,90.06,320,222.5,330,872.5,93,M,Владимир Агафонов,1987,SBD,Single-ply
5,Ivan Redkin,Open,88.75,310,230,300,840,93,M,Иван Редькин,1989,SBD,Single-ply
6,Aleksey Drachuk,Open,92.06,312.5,252.5,252.5,817.5,93,M,Алексей Драчук,1986,SBD,Single-ply
7,Andrey Kostromtsov,Open,86.8,280,200,235,715,93,M,Андрей Костромцов,1982,SBD,Single-ply
1,Konstantin Chekasin,Open,104.35,380,310,325,1015,105,M,Константин Чекасин,1992,SBD,Single-ply
2,Sergey Mashintsov,Open,102.25,380,275,345,1000,105,M,Сергей Машинцов,1987,SBD,Single-ply
3,Aleksandr Gorokhovskiy,Open,102.8,380,257.5,325,962.5,105,M,Александр Гороховский,1989,SBD,Single-ply
4,Andrey Vazhov,Open,104.35,360,292.5,310,962.5,105,M,Андрей Важов,1990,SBD,Single-ply
5,Yaroslav Dikun,Open,104.15,320,235,270,825,105,M,Ярослав Дикун,1995,SBD,Single-ply
6,Oleg Titov,Open,104.15,285,220,260,765,105,M,Олег Титов,1994,SBD,Single-ply
DQ,Roman Rubtsov,Open,104.15,,225,265,,105,M,Роман Рубцов,1983,SBD,Single-ply
1,Ivan Goryachev,Open,120,392.5,315,340,1047.5,120,M,Иван Горячев,1990,SBD,Single-ply
2,Maksim Beznosov,Open,119,420,252.5,350,1022.5,120,M,Максим Безносов,1991,SBD,Single-ply
3,Dmitriy Andrianov,Open,108.55,375,315,250,940,120,M,Дмитрий Андрианов,1988,SBD,Single-ply
4,Dmitriy Yashurin,Open,110.95,300,242.5,270,812.5,120,M,Дмитрий Яшурин,1982,SBD,Single-ply
DQ,Sadyg Sadygov,Open,118.65,382.5,,,,120,M,Садыг Садыгов,1992,SBD,Single-ply
1,Andrey Konovalov #1,Open,157.4,465,350,377.5,1192.5,120+,M,Андрей Коновалов,1986,SBD,Single-ply
2,Maksim Prokhorov,Open,145.15,440,270,362.5,1072.5,120+,M,Максим Прохоров,1989,SBD,Single-ply
3,Anton Kibirev,Open,134,400,270,370,1040,120+,M,Антон Кибирев,1982,SBD,Single-ply
4,Artem Litvinenko,Open,134.95,410,300,320,1030,120+,M,Артём Литвиненко,1990,SBD,Single-ply
5,Andrey Ushakov,Open,143.95,312.5,267.5,330,910,120+,M,Андрей Ушаков,1980,SBD,Single-ply
6,Kirill Gezin,Open,138.4,352.5,265,265,882.5,120+,M,Кирилл Гезин,1987,SBD,Single-ply
DQ,Artem Perets,Open,141.75,,290,320,,120+,M,Артем Перец,1988,SBD,Single-ply
1,Aleksey Suntsov,Juniors,50.88,125,87.5,152.5,365,53,M,Алексей Сунцов,1996,SBD,Single-ply
2,Aleksey Ezhov,Juniors,51.64,95,65,135,295,53,M,Алексей Ежов,1998,SBD,Single-ply
1,Saveliy Kirimeyskiy,Juniors,58.68,225,140,230,595,59,M,Савелий Киримейский,1996,SBD,Single-ply
2,Dmitriy Evdokimov,Juniors,58.82,205,115,205,525,59,M,Дмитрий Евдокимов,2000,SBD,Single-ply
3,Azamat Asultanov,Juniors,59,180,140,202.5,522.5,59,M,Азамат Асултанов,1997,SBD,Single-ply
1,Ruslan Balabanov,Juniors,66,265,200,230,695,66,M,Руслан Балабанов,1996,SBD,Single-ply
2,Aleksandr Grigoryev,Juniors,65.95,245,205,230,680,66,M,Александр Григорьев,1999,SBD,Single-ply
3,Aleksey Rikhter,Juniors,65.55,250,187.5,220,657.5,66,M,Алексей Рихтер,1999,SBD,Single-ply
4,Semen Chernousov,Juniors,65.35,235,130,217.5,582.5,66,M,Семен Черноусов,2000,SBD,Single-ply
DQ,Dmitriy Chubarov,Juniors,66,,180,250,,66,M,Дмитрий Чубаров,1996,SBD,Single-ply
1,Denis Olefir,Juniors,73.55,325,200,270,795,74,M,Денис Олефир,1999,SBD,Single-ply
2,Mikhail Krivospitskiy,Juniors,70.4,230,130,230,590,74,M,Михаил Кривоспицкий,1998,SBD,Single-ply
3,Vitaliy Borisov,Juniors,71.85,220,150,205,575,74,M,Виталий Борисов,2000,SBD,Single-ply
4,Vladislav Solonenko,Juniors,72.15,217.5,140,200,557.5,74,M,Владислав Солоненко,2000,SBD,Single-ply
5,Dmitriy Filatov,Juniors,73.2,200,120,210,530,74,M,Дмитрий Филатов,1997,SBD,Single-ply
6,Vladimir Ryabtsev,Juniors,69.65,182.5,92.5,185,460,74,M,Владимир Рябцев,2000,SBD,Single-ply
1,Petr Korolev,Juniors,77.95,295,180,285,760,83,M,Петр Королев,1997,SBD,Single-ply
2,Konstantin Utarbekov,Juniors,80.35,290,195,265,750,83,M,Константин Утарбеков,1996,SBD,Single-ply
3,Danil Pushkarev,Juniors,83,300,170,270,740,83,M,Данил Пушкарев,2000,SBD,Single-ply
4,Evgeniy Sevastyanov,Juniors,81.8,285,155,250,690,83,M,Евгений Севастьянов,1997,SBD,Single-ply
5,Kirill Markin,Juniors,82.65,260,172.5,230,662.5,83,M,Кирилл Маркин,1999,SBD,Single-ply
DQ,Mikhail Pelmenev,Juniors,83,,,,,83,M,Михаил Пельменев,1998,SBD,Single-ply
1,Artem Grankin,Juniors,92.15,300,245,290,835,93,M,Артем Гранкин,1996,SBD,Single-ply
2,Aleksey Agafoshin,Juniors,91.6,320,220,285,825,93,M,Алексей Агафошин,1997,SBD,Single-ply
3,Nariman Azizov,Juniors,92.85,300,210,260,770,93,M,Нариман Азизов,1999,SBD,Single-ply
4,Danila Kurakov,Juniors,91.25,300,175,275,750,93,M,Данила Кураков,2000,SBD,Single-ply
DQ,Evgeniy Tsyplakov,Juniors,91.55,275,170,,,93,M,Евгений Цыплаков,1995,SBD,Single-ply
1,Aleksey Zhuravskiy,Juniors,95.1,310,195,275,780,105,M,Алексей Журавский,1997,SBD,Single-ply
2,Artem Andrusenko,Juniors,104.25,275,157.5,257.5,690,105,M,Артем Андрусенко,1998,SBD,Single-ply
3,Nikolay Vakhonin,Juniors,104.6,265,182.5,237.5,685,105,M,Николай Вахонин,2000,SBD,Single-ply
4,Vladimir Seleznev,Juniors,104.9,255,175,242.5,672.5,105,M,Владимир Селезнев,1996,SBD,Single-ply
5,Aleksey Davydov,Juniors,97.55,180,175,200,555,105,M,Алексей Давыдов,1996,SBD,Single-ply
DQ,Sergey Drogalev,Juniors,104.85,,,,,105,M,Сергей Дрогалев,2000,SBD,Single-ply
1,Aleksandr Kuzmin,Juniors,112.15,360,210,330,900,120,M,Александр Кузьмин,1998,SBD,Single-ply
2,Fedor Brusnitsyn,Juniors,117.4,330,250,320,900,120,M,Федор Брусницын,1996,SBD,Single-ply
3,Ivan Kulikovskiy,Juniors,112.9,365,220,305,890,120,M,Иван Куликовский,1999,SBD,Single-ply
4,Vladislav Akimov,Juniors,118.65,320,232.5,272.5,825,120,M,Владислав Акимов,1996,SBD,Single-ply
1,Dmitriy Gvozdev,Juniors,143.5,370,265,295,930,120+,M,Дмитрий Гвоздев,1996,SBD,Single-ply
2,Vladislav Nemov,Juniors,128.3,350,250,315,915,120+,M,Владислав Немов,1996,SBD,Single-ply
3,Semen Dukshanin,Juniors,120.95,340,220,280,840,120+,M,Семен Дукшанин,2000,SBD,Single-ply
4,Pavel Tikhonov,Juniors,120.1,325,225,280,830,120+,M,Павел Тихонов,1997,SBD,Single-ply
1,Georgiy Rykov,Sub-Juniors,52.34,170,115,152.5,437.5,53,M,Георгий Рыков,2001,SBD,Single-ply
2,Egor Nosach,Sub-Juniors,51.8,140,92.5,142.5,375,53,M,Егор Носач,2002,SBD,Single-ply
3,Ivan Tolochin,Sub-Juniors,51.98,145,72.5,147.5,365,53,M,Иван Толочин,2002,SBD,Single-ply
4,Aleksandr Repin,Sub-Juniors,52.36,110,70,100,280,53,M,Александр Репин,2003,SBD,Single-ply
DQ,Nikita Dyakov,Sub-Juniors,52.82,,,,,53,M,Никита Дьяков,2001,SBD,Single-ply
1,Ilya Marichev,Sub-Juniors,58.54,220,159,230,609,59,M,Илья Маричев,2001,SBD,Single-ply
2,Vladislav Yuschenko,Sub-Juniors,58.52,205,127.5,200,532.5,59,M,Владислав Ющенко,2002,SBD,Single-ply
3,Sergey Popov,Sub-Juniors,58.16,210,97.5,222.5,530,59,M,Сергей Попов,2002,SBD,Single-ply
4,Maksim Aksaev,Sub-Juniors,58.86,200,117.5,212.5,530,59,M,Максим Аксаев,2001,SBD,Single-ply
5,Yaroslav Elfimov,Sub-Juniors,57.52,200,117.5,180,497.5,59,M,Ярослав Елфимов,2002,SBD,Single-ply
6,Mikhail Antsiferov,Sub-Juniors,57.9,135,70,145,350,59,M,Михаил Анциферов,2003,SBD,Single-ply
DQ,Maksim Popov #2,Sub-Juniors,58.58,,,,,59,M,Максим Попов,2002,SBD,Single-ply
DQ,Oleg Klochko,Sub-Juniors,58.96,,,,,59,M,Олег Клочко,2001,SBD,Single-ply
1,Daniil Mullin,Sub-Juniors,65,212.5,150,205,567.5,66,M,Даниил Муллин,2001,SBD,Single-ply
2,Nikita Suvorov,Sub-Juniors,64.15,207.5,140,215,562.5,66,M,Никита Суворов,2001,SBD,Single-ply
3,Valeriy Prokopyev,Sub-Juniors,65.7,220,140,197.5,557.5,66,M,Валерий Прокопьев,2001,SBD,Single-ply
4,Artem Martynov,Sub-Juniors,65,200,127.5,200,527.5,66,M,Артем Мартынов,2002,SBD,Single-ply
5,Ilya Drozdov,Sub-Juniors,62.8,170,95,175,440,66,M,Илья Дроздов,2002,SBD,Single-ply
6,Vadim Avilkin,Sub-Juniors,66,147.5,95,185,427.5,66,M,Вадим Авилкин,2001,SBD,Single-ply
1,Dmitriy Zaytsev,Sub-Juniors,72.2,270,200.5,260,730.5,74,M,Дмитрий Зайцев,2001,SBD,Single-ply
2,Nikita Grebenkin,Sub-Juniors,73.65,252.5,182.5,235,670,74,M,Никита Гребенкин,2001,SBD,Single-ply
3,Evgeniy Stepanov,Sub-Juniors,72.75,245,175,235,655,74,M,Евгений Степанов,2001,SBD,Single-ply
4,Pavel Nekrasov,Sub-Juniors,72.05,245,140,225,610,74,M,Павел Некрасов,2001,SBD,Single-ply
5,Ivan Bondarev,Sub-Juniors,73.55,225,140,222.5,587.5,74,M,Иван Бондарев,2002,SBD,Single-ply
6,Maksim Veretennikov,Sub-Juniors,72.85,200,150,225,575,74,M,Максим Веретенников,2003,SBD,Single-ply
7,Andrey Nikitin,Sub-Juniors,70.1,222.5,130,210,562.5,74,M,Андрей Никитин,2001,SBD,Single-ply
8,Maksim Dubovik,Sub-Juniors,73.45,160,115,182.5,457.5,74,M,Максим Дубовик,2002,SBD,Single-ply
9,Ruslan Kabanov,Sub-Juniors,70.85,182.5,102.5,160,445,74,M,Руслан Кабанов,2003,SBD,Single-ply
DQ,Vadim Alyabyev,Sub-Juniors,72.6,225,,,,74,M,Вадим Алябьев,2001,SBD,Single-ply
DQ,Vladimir Surkov,Sub-Juniors,73.1,,,,,74,M,Владимир Сурков,2001,SBD,Single-ply
1,Vyacheslav Kazak,Sub-Juniors,82.2,242.5,167.5,235,645,83,M,Вячеслав Казак,2001,SBD,Single-ply
2,Aleksandr Kuzubov,Sub-Juniors,81.45,220,185.5,220,625.5,83,M,Александр Кузубов,2001,SBD,Single-ply
3,Maksim Kasymov,Sub-Juniors,82.8,257.5,125,225,607.5,83,M,Максим Касымов,2001,SBD,Single-ply
4,Aleksandr Golubtsov,Sub-Juniors,76.25,232.5,120,215,567.5,83,M,Александр Голубцов,2001,SBD,Single-ply
5,Roman Dmitrichev,Sub-Juniors,81.45,200,145,200,545,83,M,Роман Дмитричев,2001,SBD,Single-ply
6,Saveliy Ozerov,Sub-Juniors,79.2,190,140,190,520,83,M,Савелий Озеров,2004,SBD,Single-ply
DQ,Ruslan Potolov,Sub-Juniors,81.5,,,,,83,M,Руслан Потолов,2001,SBD,Single-ply
1,Vyacheslav Markelov,Sub-Juniors,86.85,290,175,275,740,93,M,Вячеслав Маркелов,2001,SBD,Single-ply
2,Arseniy Konkov,Sub-Juniors,92.3,265,175,285,725,93,M,Арсений Коньков,2001,SBD,Single-ply
3,Mikhail Volbenko,Sub-Juniors,91.45,270,190,262.5,722.5,93,M,Михаил Волбенко,2001,SBD,Single-ply
4,Maksim Korotkov,Sub-Juniors,87.3,227.5,130,225,582.5,93,M,Максим Коротков,2002,SBD,Single-ply
1,Nikita Morozov,Sub-Juniors,99.55,265,165,250,680,105,M,Никита Морозов,2002,SBD,Single-ply
2,Aleksey Kolevatov,Sub-Juniors,102.25,240,175,220,635,105,M,Алексей Колеватов,2001,SBD,Single-ply
3,Konstantin Obraztsov,Sub-Juniors,93.15,240,150,220,610,105,M,Константин Образцов,2001,SBD,Single-ply
4,Nikita Tsukanov,Sub-Juniors,97.53,212.5,140,225,577.5,105,M,Никита Цуканов,2002,SBD,Single-ply
5,Nikita Kasymov,Sub-Juniors,98.7,170,120,140,430,105,M,Никита Касымов,2004,SBD,Single-ply
DQ,Valentin Frolov,Sub-Juniors,100.5,270,,,,105,M,Валентин Фролов,2001,SBD,Single-ply
1,Ilya Sherstnev,Sub-Juniors,111.75,320,215,250,785,120,M,Илья Шерстнев,2003,SBD,Single-ply
2,Dmitriy Efimik,Sub-Juniors,119.3,290,210,250,750,120,M,Дмитрий Ефимик,2001,SBD,Single-ply
3,Ivan Pugovkin,Sub-Juniors,105.75,220,150,200,570,120,M,Иван Пуговкин,2002,SBD,Single-ply
1,Egor Tkachuk,Sub-Juniors,134.6,285,175,255,715,120+,M,Егор Ткачук,2001,SBD,Single-ply
2,Dmitriy Lyalin,Sub-Juniors,133.4,245,160,230,635,120+,M,Дмитрий Лялин,2003,SBD,Single-ply
3,Mukhiddin Azizov,Sub-Juniors,140.8,200,140,205,545,120+,M,Мухиддин Азизов,2003,SBD,Single-ply
1,Ekaterina Zhiltsova,Juniors,42.46,112.5,55,117.5,285,43,F,Екатерина Жильцова,1996,SBD,Single-ply
2,Svetlana Kan,Juniors,41.7,65,42.5,70,177.5,43,F,Светлана Кан,1996,SBD,Single-ply
1,Elmira Abdullaeva,Juniors,46.82,142.5,75,140,357.5,47,F,Эльмира Абдуллаева,1998,SBD,Single-ply
2,Natalya Fomina,Juniors,46.86,135,72.5,140,347.5,47,F,Наталья Фомина,1999,SBD,Single-ply
3,Marina Ramazanova,Juniors,45.14,132.5,80,120,332.5,47,F,Марина Рамазанова,1997,SBD,Single-ply
4,Tatyana Vyaznikova,Juniors,46.98,112.5,60,112.5,285,47,F,Татьяна Вязникова,1999,SBD,Single-ply
5,Ekaterina Goncharenko,Juniors,46.66,102.5,57.5,95,255,47,F,Екатерина Гончаренко,2000,SBD,Single-ply
1,Anastasiya Chervyakova,Juniors,51.16,177.5,90,152.5,420,52,F,Анастасия Червякова,1999,SBD,Single-ply
2,Yuliya Fedorova,Juniors,51.02,160,87.5,150,397.5,52,F,Юлия Федорова,1999,SBD,Single-ply
3,Aleksandra Simonova,Juniors,51.46,140,77.5,165.5,383,52,F,Александра Симонова,1998,SBD,Single-ply
4,Alina Osipova,Juniors,51.48,165,85,130,380,52,F,Алина Осипова,2000,SBD,Single-ply
5,Kseniya Poluyakhtova,Juniors,51.58,137.5,82.5,122.5,342.5,52,F,Ксения Полуяхтова,1997,SBD,Single-ply
6,Ekaterina Ilyushkina,Juniors,51.34,100,60,100,260,52,F,Екатерина Илюшкина,1998,SBD,Single-ply
1,Tatyana Smolekho,Juniors,55.36,182.5,127.5,147.5,457.5,57,F,Татьяна Смолехо,1996,SBD,Single-ply
2,Olga Ponomareva,Juniors,56.06,165,105,147.5,417.5,57,F,Ольга Пономарева,2000,SBD,Single-ply
3,Darya Pribylova,Juniors,56.26,172.5,82.5,147.5,402.5,57,F,Дарья Прибылова,1997,SBD,Single-ply
4,Oksana Rakhmankulova,Juniors,56.94,165,80,155,400,57,F,Оксана Рахманкулова,1997,SBD,Single-ply
5,Anastasiya Malysheva,Juniors,55.36,147.5,80,167.5,395,57,F,Анастасия Малышева,2000,SBD,Single-ply
6,Olga Kulikova,Juniors,55.92,145,85,145,375,57,F,Ольга Куликова,2000,SBD,Single-ply
7,Svetlana Kaseva,Juniors,56.96,150,85,140,375,57,F,Светлана Касева,1996,SBD,Single-ply
8,Yuliya Obolskaya,Juniors,56.08,145,90,130,365,57,F,Юлия Обольская,2000,SBD,Single-ply
9,Mariya Ippolitova,Juniors,56.7,150,70,140,360,57,F,Мария Ипполитова,1998,SBD,Single-ply
10,Yuliya Oleynikova,Juniors,56.74,130,80,132.5,342.5,57,F,Юлия Олейникова,1999,SBD,Single-ply
11,Anna Bornovolokova,Juniors,56.56,130,80,107.5,317.5,57,F,Анна Борноволокова,2000,SBD,Single-ply
1,Kseniya Atamanova,Juniors,62.85,187.5,125,175,487.5,63,F,Ксения Атаманова,1997,SBD,Single-ply
2,Aleksandra Aksenova,Juniors,62.6,195,105,160,460,63,F,Александра Аксенова,1997,SBD,Single-ply
3,Ekaterina Cherkashova,Juniors,63,180,127.5,150,457.5,63,F,Екатерина Черкашова,1997,SBD,Single-ply
4,Aleksandra Davydova,Juniors,62.75,180,97.5,150,427.5,63,F,Александра Давыдова,1998,SBD,Single-ply
5,Ulyana Gabova,Juniors,62.7,162.5,97.5,160,420,63,F,Ульяна Габова,2000,SBD,Single-ply
6,Polina Medvedeva,Juniors,61.1,177.5,85,155,417.5,63,F,Полина Медведева,1996,SBD,Single-ply
7,Arina Shishmakova,Juniors,62.7,177.5,90,140,407.5,63,F,Арина Шишмакова,1996,SBD,Single-ply
8,Anastasiya Ivacheva,Juniors,62.4,162.5,90,140,392.5,63,F,Анастасия Ивачева,2000,SBD,Single-ply
1,Yuliya Pogodina,Juniors,71.9,210,125,200,535,72,F,Юлия Погодина,1997,SBD,Single-ply
2,Mariya Lebedeva,Juniors,71.65,197.5,120,172.5,490,72,F,Мария Лебедева,1996,SBD,Single-ply
3,Anastasiya Okhorzina,Juniors,71.85,160,125,180,465,72,F,Анастасия Охорзина,1997,SBD,Single-ply
4,Lyudmila Stepynina,Juniors,70.1,195,110,150,455,72,F,Людмила Степынина,1996,SBD,Single-ply
5,Anastasiya Melnikova,Juniors,71.65,190,95,165,450,72,F,Анастасия Мельникова,1996,SBD,Single-ply
6,Dinara Matyakubova,Juniors,71.95,170,100,170,440,72,F,Динара Матякубова,1999,SBD,Single-ply
1,Anastasiya Minaeva,Juniors,83.65,210,135,180,525,84,F,Анастасия Минаева,1998,SBD,Single-ply
2,Anastasiya Nazareva,Juniors,83.15,190,125,165,480,84,F,Анастасия Назарёва,1998,SBD,Single-ply
3,Aleksandra Kitsul,Juniors,83.05,170,115,185,470,84,F,Александра Кицул,2000,SBD,Single-ply
4,Alina Nikolaenko,Juniors,84,175,125,170,470,84,F,Алина Николаенко,1997,SBD,Single-ply
5,Darya Chetvernina,Juniors,82,197.5,115,150,462.5,84,F,Дарья Четвернина,2000,SBD,Single-ply
6,Anzhelika Luchinetskaya,Juniors,81.85,170,105,160,435,84,F,Анжелика Лучинецкая,1999,SBD,Single-ply
1,Olga Savchenko,Juniors,103.25,150,92.5,145,387.5,84+,F,Ольга Савченко,1998,SBD,Single-ply
2,Evgeniya Ruzaeva,Juniors,93.85,140,82.5,120,342.5,84+,F,Евгения Рузаева,2000,SBD,Single-ply
3,Alina Shustrova,Juniors,88.25,72.5,52.5,75,200,84+,F,Алина Шустрова,2000,SBD,Single-ply
1,Irina Ivanova,Open,46.98,160,117.5,142.5,420,47,F,Ирина Иванова,1996,SBD,Single-ply
2,Svetlana Saydasheva,Open,46.78,157.5,85,160,402.5,47,F,Светлана Сайдашева,1988,SBD,Single-ply
3,Kristina Moskaleva,Open,46.62,165,85,142.5,392.5,47,F,Кристина Москалева,1990,SBD,Single-ply
4,Nadezhda Kozhevnikova,Open,47,135,100,135,370,47,F,Надежда Кожевникова,1993,SBD,Single-ply
5,Olga Ermakova,Open,46.36,137.5,67.5,122.5,327.5,47,F,Ольга Ермакова,1993,SBD,Single-ply
DQ,Evgeniya Chistik,Open,46.34,,90,160,,47,F,Евгения Чистик,1984,SBD,Single-ply
1,Natalia Salnikova,Open,51.42,197.5,140,182.5,520,52,F,Наталья Сальникова,1986,SBD,Single-ply
2,Aigul Sitdikova,Open,51.88,190,150.5,160,500.5,52,F,Айгуль Ситдикова,1989,SBD,Single-ply
3,Valentina Vermenyuk,Open,51.94,195,112.5,175,482.5,52,F,Валентина Верменюк,1986,SBD,Single-ply
4,Anna Komlaeva,Open,51.92,190,112.5,170,472.5,52,F,Анна Комлаева,1979,SBD,Single-ply
5,Ekaterina Volodina,Open,51.56,180,85,152.5,417.5,52,F,Екатерина Володина,1994,SBD,Single-ply
6,Margarita Vasilyeva,Open,50.92,172.5,100,140,412.5,52,F,Маргарита Васильева,1995,SBD,Single-ply
7,Olga Pasechnaya,Open,51.64,160,95,150,405,52,F,Ольга Пасечная,1981,SBD,Single-ply
8,Olga Bychkova,Open,51.14,137.5,80,157.5,375,52,F,Ольга Бычкова,1966,SBD,Single-ply
DQ,Elena Shatun,Open,51.8,147.5,,145,,52,F,Елена Шатун,1989,SBD,Single-ply
1,Daniela Kolesnik,Open,56.56,200,157.5,190,547.5,57,F,Даниела Колесник,1999,SBD,Single-ply
2,Anastasia Lorents,Open,56.48,180,150,187.5,517.5,57,F,Анастасия Лоренц,1985,SBD,Single-ply
3,Viktoria Karlysheva,Open,56.46,200,125,190,515,57,F,Виктория Карлышева,1993,SBD,Single-ply
4,Elena Borisova,Open,56.9,182.5,127.5,195,505,57,F,Елена Борисова,1994,SBD,Single-ply
5,Kseniya Mokhova,Open,57,182.5,90,185,457.5,57,F,Ксения Мохова,1986,SBD,Single-ply
6,Anna Goryacheva,Open,56.78,155,90,145,390,57,F,Анна Горячева,1988,SBD,Single-ply
1,Olga Adamovich,Open,62.75,220,135,207.5,562.5,63,F,Ольга Адамович,1991,SBD,Single-ply
2,Darya Lomatskaya,Open,62.9,205,142.5,197.5,545,63,F,Дарья Ломацкая,2001,SBD,Single-ply
3,Yuliya Vavilova,Open,60.35,207.5,115,170,492.5,63,F,Юлия Вавилова,1979,SBD,Single-ply
4,Vera Kaynova,Open,61.7,190,107.5,175,472.5,63,F,Вера Кайнова,1995,SBD,Single-ply
5,Yuliya Bakhvalova,Open,62.6,182.5,95,182.5,460,63,F,Юлия Бахвалова,1991,SBD,Single-ply
6,Anna Dryakhlykh,Open,59.88,152.5,80,170,402.5,63,F,Анна Дряхлых,1983,SBD,Single-ply
1,Lidiya Zayats,Open,65.7,210,145,197.5,552.5,72,F,Лидия Заяц,1996,SBD,Single-ply
2,Maria Gulidova,Open,70.4,217.5,147.5,187.5,552.5,72,F,Мария Гулидова,1989,SBD,Single-ply
3,Mariya Erokhina,Open,71.7,210,135,187.5,532.5,72,F,Мария Ерохина,1995,SBD,Single-ply
4,Kateryna Prokopova,Open,70.7,170,125,167.5,462.5,72,F,Катерина Прокопова,1994,SBD,Single-ply
5,Tatyana Slatova,Open,70.25,190,120,150,460,72,F,Татьяна Слатова,1981,SBD,Single-ply
6,Kseniya Karataeva,Open,70.9,190,112.5,152.5,455,72,F,Ксения Каратаева,1992,SBD,Single-ply
7,Oksana Shtukatur,Open,72,150,90,140,380,72,F,Оксана Штукатур,1989,SBD,Single-ply
1,Ekaterina Baranova,Open,82.25,227.5,177.5,190,595,84,F,Екатерина Баранова,1992,SBD,Single-ply
2,Nadezhda Sindikas,Open,81.4,220,150,192.5,562.5,84,F,Надежда Синдикас,1986,SBD,Single-ply
3,Serafima Shastunova,Open,72.45,192.5,127.5,170,490,84,F,Серафима Шастунова,1990,SBD,Single-ply
4,Irina Andreeva,Open,75.55,187.5,102.5,175,465,84,F,Ирина Андреева,1989,SBD,Single-ply
5,Yuliya Alekseeva,Open,76.6,155,110,140,405,84,F,Юлия Алексеева,1993,SBD,Single-ply
1,Anna Kukhareva,Open,101.9,250,157.5,235,642.5,84+,F,Анна Кухарева,1990,SBD,Single-ply
2,Darya Efimtseva,Open,121.9,255,185,202.5,642.5,84+,F,Дарья Ефимцева,2000,SBD,Single-ply
3,Anastasia Pavlova,Open,93,242.5,180,202.5,625,84+,F,Анастасия Павлова,1996,SBD,Single-ply
4,Elena Kucherenko,Open,93.1,235,155,190,580,84+,F,Елена Кучеренко,1992,SBD,Single-ply
5,Yana Spinova,Open,100.3,175,115,140,430,84+,F,Яна Спинова,1995,SBD,Single-ply
1,Ekaterina Ryaboshlyk,Sub-Juniors,40.12,122.5,70,110,302.5,43,F,Екатерина Рябошлык,2001,SBD,Single-ply
2,Mariya Romanova,Sub-Juniors,43,112.5,42.5,107.5,262.5,43,F,Мария Романова,2002,SBD,Single-ply
3,Anzhelika Oboturova,Sub-Juniors,42.62,95,55,100,250,43,F,Анжелика Оботурова,2003,SBD,Single-ply
4,Anastasiya Filatova,Sub-Juniors,41.22,92.5,55,97.5,245,43,F,Анастасия Филатова,2004,SBD,Single-ply
5,Anastasiya Polyakova,Sub-Juniors,42.88,85,47.5,100,232.5,43,F,Анастасия Полякова,2004,SBD,Single-ply
6,Anna Trofimova,Sub-Juniors,42.98,75,65,87.5,227.5,43,F,Анна Трофимова,2004,SBD,Single-ply
7,Polina Litvinova,Sub-Juniors,42.32,77.5,57.5,85,220,43,F,Полина Литвинова,2002,SBD,Single-ply
1,Anastasiya Leontyeva,Sub-Juniors,46.42,132.5,72.5,140,345,47,F,Анастасия Леонтьева,2001,SBD,Single-ply
2,Yuliya Ksenzova,Sub-Juniors,46.14,142.5,77.5,122.5,342.5,47,F,Юлия Ксензова,2001,SBD,Single-ply
3,Darya Kryuchkova,Sub-Juniors,45.98,125,70,127.5,322.5,47,F,Дарья Крючкова,2001,SBD,Single-ply
4,Ekaterina Volodko,Sub-Juniors,46.2,125,80,110,315,47,F,Екатерина Володько,2001,SBD,Single-ply
5,Anna Kaklyaeva,Sub-Juniors,45.78,122.5,62.5,115,300,47,F,Анна Какляева,2001,SBD,Single-ply
6,Snezhana Timkova,Sub-Juniors,45.74,115,65,115,295,47,F,Снежана Тимкова,2002,SBD,Single-ply
7,Veronika Safonova,Sub-Juniors,46.8,122.5,65,105,292.5,47,F,Вероника Сафонова,2004,SBD,Single-ply
8,Anastasiya Urenko,Sub-Juniors,46.58,120,57.5,112.5,290,47,F,Анастасия Уренко,2002,SBD,Single-ply
9,Aleksandra Erokhina,Sub-Juniors,45.64,110,60,92.5,262.5,47,F,Александра Ерохина,2004,SBD,Single-ply
10,Valeriya Konstantinesku,Sub-Juniors,46.1,90,60,90,240,47,F,Валерия Константинеску,2001,SBD,Single-ply
1,Diana Gorodchikova,Sub-Juniors,51.46,162.5,80,155,397.5,52,F,Диана Городчикова,2002,SBD,Single-ply
2,Alena Belyankina,Sub-Juniors,52,145,90,155,390,52,F,Алена Белянкина,2001,SBD,Single-ply
3,Tatyana Belskaya,Sub-Juniors,51.62,132.5,80,110,322.5,52,F,Татьяна Бельская,2002,SBD,Single-ply
4,Elizaveta Babiy,Sub-Juniors,51.6,117.5,62.5,117.5,297.5,52,F,Елизавета Бабий,2002,SBD,Single-ply
5,Alena Postika,Sub-Juniors,50.88,115,60,117.5,292.5,52,F,Алена Постика,2001,SBD,Single-ply
6,Darya Yuzhakova,Sub-Juniors,50.66,92.5,57.5,87.5,237.5,52,F,Дарья Южакова,2003,SBD,Single-ply
DQ,Katerina Kaplina,Sub-Juniors,51,122.5,,,,52,F,Катерина Каплина,2002,SBD,Single-ply
1,Alina Domashina,Sub-Juniors,56.62,157.5,87.5,155,400,57,F,Алина Домашина,2001,SBD,Single-ply
2,Karina Chebunina,Sub-Juniors,56,155,72.5,157.5,385,57,F,Карина Чебунина,2003,SBD,Single-ply
3,Alina Agafonova,Sub-Juniors,55.08,160,75,145,380,57,F,Алина Агафонова,2002,SBD,Single-ply
4,Ekaterina Kirillova,Sub-Juniors,56.8,137.5,102.5,140,380,57,F,Екатерина Кириллова,2002,SBD,Single-ply
5,Alina Khamidullina,Sub-Juniors,56.14,145,95,130,370,57,F,Алина Хамидуллина,2001,SBD,Single-ply
6,Valeriya Sukhovinskaya,Sub-Juniors,55.02,150,80,132.5,362.5,57,F,Валерия Суховинская,2003,SBD,Single-ply
7,Alisa Budanova,Sub-Juniors,57,125,70,130,325,57,F,Алиса Буданова,2002,SBD,Single-ply
DQ,Anastasiya Militichkina,Sub-Juniors,56.88,170,105,,,57,F,Анастасия Милитичкина,2002,SBD,Single-ply
DQ,Lada Keller,Sub-Juniors,56.06,,,,,57,F,Лада Келлер,2001,SBD,Single-ply
1,Darya Lomatskaya,Sub-Juniors,63,175,122.5,155,452.5,63,F,Дарья Ломацкая,2001,SBD,Single-ply
2,Lada Bessonova,Sub-Juniors,61.5,162.5,117.5,142.5,422.5,63,F,Лада Бессонова,2000,SBD,Single-ply
3,Anna Vasilyeva,Sub-Juniors,62.8,160,115,145,420,63,F,Анна Васильева,2001,SBD,Single-ply
4,Alina Berdnikova,Sub-Juniors,63,150,97.5,120,367.5,63,F,Алина Бердникова,2001,SBD,Single-ply
5,Snezhana Schukina,Sub-Juniors,59.76,137.5,70,130,337.5,63,F,Снежана Щукина,2001,SBD,Single-ply
6,Aleksandra Svergun,Sub-Juniors,60.9,130,50,130,310,63,F,Александра Свергун,2001,SBD,Single-ply
7,Elizaveta Polyakova,Sub-Juniors,61.75,110,62.5,110,282.5,63,F,Елизавета Полякова,2001,SBD,Single-ply
DQ,Polina Penkova,Sub-Juniors,62.95,152.5,,,,63,F,Полина Пенькова,2002,SBD,Single-ply
1,Oksana Gordeeva,Sub-Juniors,65.9,185,110,186,481,72,F,Оксана Гордеева,2001,SBD,Single-ply
2,Olga Nikula,Sub-Juniors,71.15,165,85,147.5,397.5,72,F,Ольга Никула,2001,SBD,Single-ply
3,Aleksandra Doronina,Sub-Juniors,65.4,147.5,92.5,150,390,72,F,Александра Доронина,2001,SBD,Single-ply
4,Karina Nikolaenko,Sub-Juniors,67,152.5,75,140,367.5,72,F,Карина Николаенко,2003,SBD,Single-ply
5,Darya Tseplyaeva,Sub-Juniors,70.7,150,70,132.5,352.5,72,F,Дарья Цепляева,2002,SBD,Single-ply
1,Anna Vozmilova,Sub-Juniors,83.9,197.5,125,177.5,500,84,F,Анна Возмилова,2001,SBD,Single-ply
2,Darya Smirnova,Sub-Juniors,76.15,180,92.5,180,452.5,84,F,Дарья Смирнова,2001,SBD,Single-ply
3,Alena Lebedeva,Sub-Juniors,83.95,137.5,77.5,162.5,377.5,84,F,Алена Лебедева,2004,SBD,Single-ply
4,Ekaterina Verba,Sub-Juniors,72.1,152.5,87.5,135,375,84,F,Екатерина Верба,2003,SBD,Single-ply
5,Aleksandra Zhuravkova,Sub-Juniors,72.8,110,60,95,265,84,F,Александра Журавкова,2002,SBD,Single-ply
1,Olga Kuzmina,Sub-Juniors,138.25,220,130,175,525,84+,F,Ольга Кузьмина,2001,SBD,Single-ply
2,Veronika Shlykova,Sub-Juniors,101.55,150,90,142.5,382.5,84+,F,Вероника Шлыкова,2003,SBD,Single-ply
